[
  {
    "uuid": "9b07f7c6-6352-4899-967f-64cc2a952125",
    "name": "Z3ntr0",
    "level": 4,
    "bypassesPlayerLimit": false
  },
  {
    "uuid": "7b1500ee-8b05-44c2-a7de-3e74ed90dae6",
    "name": "Colonel_Yeetus",
    "level": 4,
    "bypassesPlayerLimit": false
  }
]