{
  "minecraft:recipes/misc/charcoal": {
    "criteria": {
      "has_log": "2021-04-14 16:50:21 +0000"
    },
    "done": true
  },
  "minecraft:recipes/building_blocks/oak_planks": {
    "criteria": {
      "has_logs": "2021-04-14 16:50:21 +0000"
    },
    "done": true
  },
  "minecraft:recipes/building_blocks/oak_wood": {
    "criteria": {
      "has_log": "2021-04-14 16:50:21 +0000"
    },
    "done": true
  },
  "minecraft:adventure/adventuring_time": {
    "criteria": {
      "minecraft:forest": "2021-04-14 16:47:40 +0000"
    },
    "done": false
  },
  "DataVersion": 2586
}